{
  "extends": "../../../tslint.json",
  "rules": {
    "directive-selector": [true, "attribute", ["bmi", "ui"], "camelCase"],
    "component-selector": [true, "element", ["bmi", "ui"], "kebab-case"]
  },
  "linterOptions": {
    "exclude": ["!**/*"]
  }
}
